{
    "benchmarks.AbelianDifferentials.time_euler_characteristic": {
        "code": "class AbelianDifferentials:\n    def time_euler_characteristic(self, sig):\n        admcycles.diffstrata.cache.ADM_EVALS = admcycles.diffstrata.cache.FakeCache()\n        admcycles.diffstrata.cache.TOP_XIS = admcycles.diffstrata.cache.FakeCache()\n        admcycles.diffstrata.generalisedstratum.shared_cache.clear()\n        X = Stratum(sig)\n        X.euler_characteristic()\n\nclass Benchmark:\n    def setup(self, *args):\n        if args and isinstance(args[0], NoProduct):\n            raise NotImplementedError(\"this marker input will be ignored by ASV because we are throwing a NotImplementedError in setup()\")",
        "min_run_count": 2,
        "name": "benchmarks.AbelianDifferentials.time_euler_characteristic",
        "number": 0,
        "param_names": [
            "param1"
        ],
        "params": [
            [
                "Signature",
                "(3, 1)",
                "(2, -3, 3)",
                "(50, -52, 2)"
            ]
        ],
        "repeat": 0,
        "rounds": 2,
        "sample_time": 0.01,
        "timeout": 60.0,
        "type": "time",
        "unit": "seconds",
        "version": "f034b399264be8d4971c7468e3d3be71fa639670beae68017106b49bf9c39dbf",
        "warmup_time": -1
    },
    "benchmarks.AbelianDifferentials.time_top_xi_powers": {
        "code": "class AbelianDifferentials:\n    def time_top_xi_powers(self, sig):\n        admcycles.diffstrata.cache.ADM_EVALS = admcycles.diffstrata.cache.FakeCache()\n        admcycles.diffstrata.cache.TOP_XIS = admcycles.diffstrata.cache.FakeCache()\n        admcycles.diffstrata.generalisedstratum.shared_cache.clear()\n        X = Stratum(sig)\n        X.top_xi_at_level(((), 0), 0)\n\nclass Benchmark:\n    def setup(self, *args):\n        if args and isinstance(args[0], NoProduct):\n            raise NotImplementedError(\"this marker input will be ignored by ASV because we are throwing a NotImplementedError in setup()\")",
        "min_run_count": 2,
        "name": "benchmarks.AbelianDifferentials.time_top_xi_powers",
        "number": 0,
        "param_names": [
            "param1"
        ],
        "params": [
            [
                "Signature",
                "(8,)",
                "(1, -3, 4)",
                "(2, -3, 3)",
                "(80, -82, 1, 1)"
            ]
        ],
        "repeat": 0,
        "rounds": 2,
        "sample_time": 0.01,
        "timeout": 60.0,
        "type": "time",
        "unit": "seconds",
        "version": "2deb4540755520a3f19d533a4dac5ddcc5ba46d01187f4ca1a288c66a6acc0a7",
        "warmup_time": -1
    },
    "benchmarks.AlgebraInTautologicalRing.time_lambda_and_psi_product1": {
        "code": "class AlgebraInTautologicalRing:\n    def time_lambda_and_psi_product1(self):\n        # from https://gitlab.com/modulispaces/admcycles/issues/28\n        lambdaclass(3,3,3) * psiclass(1,3,3)**2 * psiclass(2,3,3)**2 * psiclass(3,3,3)**2\n\nclass Benchmark:\n    def setup(self, *args):\n        if args and isinstance(args[0], NoProduct):\n            raise NotImplementedError(\"this marker input will be ignored by ASV because we are throwing a NotImplementedError in setup()\")",
        "min_run_count": 2,
        "name": "benchmarks.AlgebraInTautologicalRing.time_lambda_and_psi_product1",
        "number": 0,
        "param_names": [],
        "params": [],
        "repeat": 0,
        "rounds": 2,
        "sample_time": 0.01,
        "timeout": 60.0,
        "type": "time",
        "unit": "seconds",
        "version": "530b4b493dc121da0c4d159f27f195301a0d81d8834832f7aeb0fbd2349776f9",
        "warmup_time": -1
    },
    "benchmarks.AlgebraInTautologicalRing.time_lambda_power": {
        "code": "class AlgebraInTautologicalRing:\n    def time_lambda_power(self, dgnp):\n        d, g, n, p = dgnp\n        lambdaclass(d,g,n)**p\n\nclass Benchmark:\n    def setup(self, *args):\n        if args and isinstance(args[0], NoProduct):\n            raise NotImplementedError(\"this marker input will be ignored by ASV because we are throwing a NotImplementedError in setup()\")",
        "min_run_count": 2,
        "name": "benchmarks.AlgebraInTautologicalRing.time_lambda_power",
        "number": 0,
        "param_names": [
            "param1"
        ],
        "params": [
            [
                "d, g, n, p",
                "(1, 3, 2, 3)",
                "(2, 4, 0, 2)"
            ]
        ],
        "repeat": 0,
        "rounds": 2,
        "sample_time": 0.01,
        "timeout": 60.0,
        "type": "time",
        "unit": "seconds",
        "version": "bb8a282eb92509dd1fa5231a7aef33a99e125c2f0848f7c6e1a01e1a2d570531",
        "warmup_time": -1
    },
    "benchmarks.CommonDegenerations.time_common_degenerations": {
        "code": "class CommonDegenerations:\n    def time_common_degenerations(self, gnmodm1m2):\n        for gam1 in self.L1:\n            for gam2 in self.L2:\n                common_degenerations(gam1, gam2, modiso=True)\n\n    def setup(self, *args):\n        super().setup(*args)\n        g, n, mod, m1, m2 = args[0]\n        self.L1 = pixton_list_strata(g, n, m1, mod)\n        self.L2 = pixton_list_strata(g, n, m2, mod)",
        "min_run_count": 2,
        "name": "benchmarks.CommonDegenerations.time_common_degenerations",
        "number": 0,
        "param_names": [
            "param1"
        ],
        "params": [
            [
                "g, n, mod, m1, m2",
                "(0, 6, 'st', 2, 2)",
                "(0, 6, 'st', 2, 3)",
                "(2, 3, 'st', 3, 3)",
                "(3, 2, 'ct', 4, 2)"
            ]
        ],
        "repeat": 0,
        "rounds": 2,
        "sample_time": 0.01,
        "timeout": 60.0,
        "type": "time",
        "unit": "seconds",
        "version": "a135105b0bd40bca2d057341b2531286c3a4a157a057d023fd19c90aca6159dc",
        "warmup_time": -1
    },
    "benchmarks.Evaluation.time_psi_classes": {
        "code": "class Evaluation:\n    def time_psi_classes(self, gn):\n        g, n = gn\n        for p in Partitions(3*g-3+n, max_length=n):\n            prod(psiclass(i+1, g, n)**j for i,j in enumerate(p)).evaluate()\n\nclass Benchmark:\n    def setup(self, *args):\n        if args and isinstance(args[0], NoProduct):\n            raise NotImplementedError(\"this marker input will be ignored by ASV because we are throwing a NotImplementedError in setup()\")",
        "min_run_count": 2,
        "name": "benchmarks.Evaluation.time_psi_classes",
        "number": 0,
        "param_names": [
            "param1"
        ],
        "params": [
            [
                "g, n",
                "(0, 33)",
                "(1, 18)",
                "(2, 16)",
                "(6, 10)",
                "(9, 7)",
                "(13, 5)",
                "(20, 4)"
            ]
        ],
        "repeat": 0,
        "rounds": 2,
        "sample_time": 0.01,
        "timeout": 60.0,
        "type": "time",
        "unit": "seconds",
        "version": "c42ae57312ee629e4e01c514addc71afc2f0536b115c95e73da6b54679d1bab5",
        "warmup_time": -1
    },
    "benchmarks.FZRelations.time_basis": {
        "code": "class FZRelations:\n    def time_basis(self, gnrmod):\n        g, n, r, mod = gnrmod\n        R = TautologicalRing(g, n, moduli=mod)\n        L = R.basis(r)\n\nclass Benchmark:\n    def setup(self, *args):\n        if args and isinstance(args[0], NoProduct):\n            raise NotImplementedError(\"this marker input will be ignored by ASV because we are throwing a NotImplementedError in setup()\")",
        "min_run_count": 2,
        "name": "benchmarks.FZRelations.time_basis",
        "number": 0,
        "param_names": [
            "param1"
        ],
        "params": [
            [
                "g, n, r, mod",
                "(4, 1, 4, 'st')",
                "(5, 0, 5, 'ct')",
                "(3, 4, 3, 'rt')",
                "(12, 2, 8, 'sm')"
            ]
        ],
        "repeat": 0,
        "rounds": 2,
        "sample_time": 0.01,
        "timeout": 60.0,
        "type": "time",
        "unit": "seconds",
        "version": "fa64c47d703da48f1fa4da6ec5a9badfe08d20bd0aa22ed61f594d9fcac01711",
        "warmup_time": -1
    },
    "benchmarks.PairingMatrix.time_pairing_matrix": {
        "code": "class PairingMatrix:\n    def time_pairing_matrix(self, gnmodm1m2):\n        [[a * b for a in self.gens] for b in self.cogens]\n\n    def setup(self, *args):\n        super().setup(*args)\n    \n        g, n, mod, m1, m2 = args[0]\n        R = TautologicalRing(g, n, moduli=mod)\n        self.gens = R.generators(m1)\n        self.cogens = R.generators(m2)",
        "min_run_count": 2,
        "name": "benchmarks.PairingMatrix.time_pairing_matrix",
        "number": 0,
        "param_names": [
            "param1"
        ],
        "params": [
            [
                "g, n, mod, m1, m2",
                "(3, 0, 'st', 3, 2)",
                "(2, 2, 'ct', 3, 2)"
            ]
        ],
        "repeat": 0,
        "rounds": 2,
        "sample_time": 0.01,
        "timeout": 60.0,
        "type": "time",
        "unit": "seconds",
        "version": "9fda73e5bf53a3b89f9763bd2d13aadf86afa0d7058197a3f4ab23ff03123baa",
        "warmup_time": -1
    },
    "benchmarks.StrataGeneration.time_list_strata": {
        "code": "class StrataGeneration:\n    def time_list_strata(self, gn):\n        g, n = gn\n        list_strata(g, n, 3*g-3+n)\n\nclass Benchmark:\n    def setup(self, *args):\n        if args and isinstance(args[0], NoProduct):\n            raise NotImplementedError(\"this marker input will be ignored by ASV because we are throwing a NotImplementedError in setup()\")",
        "min_run_count": 2,
        "name": "benchmarks.StrataGeneration.time_list_strata",
        "number": 0,
        "param_names": [
            "param1"
        ],
        "params": [
            [
                "g, n",
                "(0, 7)",
                "(1, 5)",
                "(2, 3)",
                "(3, 2)",
                "(4, 0)"
            ]
        ],
        "repeat": 0,
        "rounds": 2,
        "sample_time": 0.01,
        "timeout": 60.0,
        "type": "time",
        "unit": "seconds",
        "version": "9a294745fa347c9f51ac8da38141c06746315ed4e1d22d5070eaec10b3fde5c6",
        "warmup_time": -1
    },
    "benchmarks.TautologicalClasses.time_double_ramification_cycle": {
        "code": "class TautologicalClasses:\n    def time_double_ramification_cycle(self, gAk):\n        g, A, k = gAk\n        DR_cycle(g, A, k=k)\n\nclass Benchmark:\n    def setup(self, *args):\n        if args and isinstance(args[0], NoProduct):\n            raise NotImplementedError(\"this marker input will be ignored by ASV because we are throwing a NotImplementedError in setup()\")",
        "min_run_count": 2,
        "name": "benchmarks.TautologicalClasses.time_double_ramification_cycle",
        "number": 0,
        "param_names": [
            "param1"
        ],
        "params": [
            [
                "g, A, k",
                "(2, (3, 1, 1, 1, 1, 1), 1)",
                "(3, (4, 4, -1), 1)",
                "(3, (5, 1, 1, 1), 1)"
            ]
        ],
        "repeat": 0,
        "rounds": 2,
        "sample_time": 0.01,
        "timeout": 60.0,
        "type": "time",
        "unit": "seconds",
        "version": "f6ce228df4e6b2bc6c10474e21dc45686dc76a7906b2ccb287f3e8748a676953",
        "warmup_time": -1
    },
    "benchmarks.TautologicalClasses.time_hyperelliptic_locus": {
        "code": "class TautologicalClasses:\n    def time_hyperelliptic_locus(self, gnm):\n        g, n, m = gnm\n        Hyperell(g, n, m)\n\nclass Benchmark:\n    def setup(self, *args):\n        if args and isinstance(args[0], NoProduct):\n            raise NotImplementedError(\"this marker input will be ignored by ASV because we are throwing a NotImplementedError in setup()\")",
        "min_run_count": 2,
        "name": "benchmarks.TautologicalClasses.time_hyperelliptic_locus",
        "number": 0,
        "param_names": [
            "param1"
        ],
        "params": [
            [
                "g, n, m",
                "(2, 1, 0)",
                "(3, 0, 0)",
                "(2, 0, 1)"
            ]
        ],
        "repeat": 0,
        "rounds": 2,
        "sample_time": 0.01,
        "timeout": 60.0,
        "type": "time",
        "unit": "seconds",
        "version": "1f5ce3ddad0bfcc6d028631c63e5c62b52d7a06a2c10103af940352159c714ca",
        "warmup_time": -1
    },
    "benchmarks.TautologicalClasses.time_lambda": {
        "code": "class TautologicalClasses:\n    def time_lambda(self, dgn):\n        d, g, n = dgn\n        lambdaclass(d,g,n)\n\nclass Benchmark:\n    def setup(self, *args):\n        if args and isinstance(args[0], NoProduct):\n            raise NotImplementedError(\"this marker input will be ignored by ASV because we are throwing a NotImplementedError in setup()\")",
        "min_run_count": 2,
        "name": "benchmarks.TautologicalClasses.time_lambda",
        "number": 0,
        "param_names": [
            "param1"
        ],
        "params": [
            [
                "d, g, n",
                "(2, 2, 8)",
                "(3, 4, 3)",
                "(4, 4, 0)"
            ]
        ],
        "repeat": 0,
        "rounds": 2,
        "sample_time": 0.01,
        "timeout": 60.0,
        "type": "time",
        "unit": "seconds",
        "version": "b56e86357b97c22e076871bc073d6a89b39ff108ff1e762e586371776b943edc",
        "warmup_time": -1
    },
    "benchmarks.TautologicalClasses.time_strataclass": {
        "code": "class TautologicalClasses:\n    def time_strataclass(self, gkmuargs):\n        Strataclass(*gkmuargs)\n\nclass Benchmark:\n    def setup(self, *args):\n        if args and isinstance(args[0], NoProduct):\n            raise NotImplementedError(\"this marker input will be ignored by ASV because we are throwing a NotImplementedError in setup()\")",
        "min_run_count": 2,
        "name": "benchmarks.TautologicalClasses.time_strataclass",
        "number": 0,
        "param_names": [
            "param1"
        ],
        "params": [
            [
                "g, k, mu, **args",
                "(3, 2, (3, 5))",
                "(2, 1, (2, 4, -2, -2), False, (2,), 0, 'diffstrata')",
                "(2, 1, (8, -2, -4), False, (), 0, 'diffstrata', True, False)"
            ]
        ],
        "repeat": 0,
        "rounds": 2,
        "sample_time": 0.01,
        "timeout": 60.0,
        "type": "time",
        "unit": "seconds",
        "version": "7d9dea7ad60d0101b2e03d1cb579ec76ec84caff040db5079532f450e7824ab2",
        "warmup_time": -1
    },
    "benchmarks.TautologicalClasses.time_witten_rspin": {
        "code": "class TautologicalClasses:\n    def time_witten_rspin(self, gAargs):\n        Wittenrspin(*gAargs)\n\nclass Benchmark:\n    def setup(self, *args):\n        if args and isinstance(args[0], NoProduct):\n            raise NotImplementedError(\"this marker input will be ignored by ASV because we are throwing a NotImplementedError in setup()\")",
        "min_run_count": 2,
        "name": "benchmarks.TautologicalClasses.time_witten_rspin",
        "number": 0,
        "param_names": [
            "param1"
        ],
        "params": [
            [
                "g, A, **args",
                "(3, (1, 1, 1, 1))",
                "(2, (5, (1/2, -1), (1/2, -2)))",
                "(3, (5, 6), 7)"
            ]
        ],
        "repeat": 0,
        "rounds": 2,
        "sample_time": 0.01,
        "timeout": 60.0,
        "type": "time",
        "unit": "seconds",
        "version": "58d1166151ef796d47a130eb3fcfb8a6424af03f89b6194bcf1af375870ba8c5",
        "warmup_time": -1
    },
    "version": 2
}